EESchema Schematic File Version 4
EELAYER 30 0
EELAYER END
$Descr A4 11693 8268
encoding utf-8
Sheet 1 1
Title "Raspberry Pi Zero (W) uHAT Template Board"
Date "2019-02-28"
Rev "1.0"
Comp ""
Comment1 "This Schematic is licensed under MIT Open Source License."
Comment2 ""
Comment3 ""
Comment4 ""
$EndDescr
$Comp
L Connector_Generic:Conn_02x20_Odd_Even J1
U 1 1 5C77771F
P 7700 3800
F 0 "J1" H 7750 4917 50  0000 C CNN
F 1 "GPIO_CONNECTOR" H 7750 4826 50  0000 C CNN
F 2 "lib:PinSocket_2x20_P2.54mm_Vertical_Centered_Anchor" H 7700 3800 50  0001 C CNN
F 3 "~" H 7700 3800 50  0001 C CNN
	1    7700 3800
	1    0    0    -1  
$EndComp
$Comp
L power:GND #PWR0101
U 1 1 5C777805
P 7300 4950
F 0 "#PWR0101" H 7300 4700 50  0001 C CNN
F 1 "GND" H 7305 4777 50  0001 C CNN
F 2 "" H 7300 4950 50  0001 C CNN
F 3 "" H 7300 4950 50  0001 C CNN
	1    7300 4950
	1    0    0    -1  
$EndComp
$Comp
L power:GND #PWR0102
U 1 1 5C777838
P 8200 4950
F 0 "#PWR0102" H 8200 4700 50  0001 C CNN
F 1 "GND" H 8205 4777 50  0001 C CNN
F 2 "" H 8200 4950 50  0001 C CNN
F 3 "" H 8200 4950 50  0001 C CNN
	1    8200 4950
	1    0    0    -1  
$EndComp
Wire Wire Line
	7500 4100 7300 4100
Wire Wire Line
	7300 4100 7300 4800
Wire Wire Line
	7500 4800 7300 4800
Connection ~ 7300 4800
Wire Wire Line
	7300 4800 7300 4950
Wire Wire Line
	8000 3100 8200 3100
Wire Wire Line
	8200 3100 8200 3500
Wire Wire Line
	8000 3500 8200 3500
Connection ~ 8200 3500
Wire Wire Line
	8200 3500 8200 3800
Wire Wire Line
	8000 3800 8200 3800
Connection ~ 8200 3800
Wire Wire Line
	8000 4300 8200 4300
Wire Wire Line
	8200 3800 8200 4300
Connection ~ 8200 4300
Wire Wire Line
	8200 4300 8200 4500
Wire Wire Line
	8000 4500 8200 4500
Connection ~ 8200 4500
Wire Wire Line
	8200 4500 8200 4950
$Comp
L power:+3.3V #PWR0103
U 1 1 5C777AB0
P 7250 2800
F 0 "#PWR0103" H 7250 2650 50  0001 C CNN
F 1 "+3.3V" H 7265 2973 50  0000 C CNN
F 2 "" H 7250 2800 50  0001 C CNN
F 3 "" H 7250 2800 50  0001 C CNN
	1    7250 2800
	1    0    0    -1  
$EndComp
Wire Wire Line
	7250 2900 7250 2800
Wire Wire Line
	7500 3700 7250 3700
Wire Wire Line
	7250 3700 7250 2900
Connection ~ 7250 2900
$Comp
L power:+5V #PWR0104
U 1 1 5C777E01
P 8300 2800
F 0 "#PWR0104" H 8300 2650 50  0001 C CNN
F 1 "+5V" H 8315 2973 50  0000 C CNN
F 2 "" H 8300 2800 50  0001 C CNN
F 3 "" H 8300 2800 50  0001 C CNN
	1    8300 2800
	1    0    0    -1  
$EndComp
Wire Wire Line
	8000 2900 8300 2900
Wire Wire Line
	8300 2900 8300 2800
Wire Wire Line
	8000 3000 8300 3000
Wire Wire Line
	8300 3000 8300 2900
Connection ~ 8300 2900
$Comp
L power:GND #PWR0105
U 1 1 5C778504
P 7750 5300
F 0 "#PWR0105" H 7750 5050 50  0001 C CNN
F 1 "GND" H 7755 5127 50  0001 C CNN
F 2 "" H 7750 5300 50  0001 C CNN
F 3 "" H 7750 5300 50  0001 C CNN
	1    7750 5300
	1    0    0    -1  
$EndComp
$Comp
L power:PWR_FLAG #FLG0102
U 1 1 5C778511
P 7750 5250
F 0 "#FLG0102" H 7750 5325 50  0001 C CNN
F 1 "PWR_FLAG" H 7750 5424 50  0000 C CNN
F 2 "" H 7750 5250 50  0001 C CNN
F 3 "~" H 7750 5250 50  0001 C CNN
	1    7750 5250
	1    0    0    -1  
$EndComp
Wire Wire Line
	7750 5250 7750 5300
Text Notes 9350 850  0    50   ~ 10
If back powering Pi with 5V \nNOTE that the Raspberry Pi 3B+ and Pi Zero \nand ZeroW do not include an input ZVD.
Wire Notes Line
	9300 550  9300 900 
Wire Notes Line
	9300 900  11150 900 
Wire Notes Line
	11150 900  11150 550 
Wire Notes Line
	11150 550  9300 550 
Wire Wire Line
	7250 2900 7500 2900
$Comp
L power:PWR_FLAG #FLG0103
U 1 1 5C77CEFA
P 8650 2800
F 0 "#FLG0103" H 8650 2875 50  0001 C CNN
F 1 "PWR_FLAG" H 8650 2974 50  0000 C CNN
F 2 "" H 8650 2800 50  0001 C CNN
F 3 "~" H 8650 2800 50  0001 C CNN
	1    8650 2800
	1    0    0    -1  
$EndComp
Wire Wire Line
	8300 2900 8650 2900
Wire Wire Line
	8650 2800 8650 2900
Text Label 6550 3000 0    50   ~ 0
GPIO2_SDA1
Text Label 6550 3100 0    50   ~ 0
GPIO3_SCL1
Text Label 6550 3200 0    50   ~ 0
GPIO4_GPIO_GCLK
Text Label 6550 3400 0    50   ~ 0
GPIO17_GEN0
Text Label 6550 3500 0    50   ~ 0
GPIO27_GEN2
Text Label 6550 3600 0    50   ~ 0
GPIO22_GEN3
Text Label 6550 3800 0    50   ~ 0
GPIO10_SPI_MOSI
Wire Wire Line
	6450 4200 7500 4200
Wire Wire Line
	6450 4300 7500 4300
Wire Wire Line
	6450 4400 7500 4400
Wire Wire Line
	6450 4500 7500 4500
Wire Wire Line
	6450 4600 7500 4600
Wire Wire Line
	6450 3600 7500 3600
Wire Wire Line
	6450 3500 7500 3500
Wire Wire Line
	6450 3400 7500 3400
Wire Wire Line
	6450 3200 7500 3200
Wire Wire Line
	6450 3100 7500 3100
Wire Wire Line
	6450 3000 7500 3000
Text Label 6550 3900 0    50   ~ 0
GPIO9_SPI_MISO
Text Label 6550 4000 0    50   ~ 0
GPIO11_SPI_SCLK
Text Label 6550 4200 0    50   ~ 0
ID_SD
Text Label 6550 4300 0    50   ~ 0
GPIO5
Text Label 6550 4400 0    50   ~ 0
GPIO6
Text Label 6550 4500 0    50   ~ 0
GPIO13
Text Label 6550 4600 0    50   ~ 0
GPIO19
Text Label 6550 4700 0    50   ~ 0
GPIO26
NoConn ~ 6450 3000
NoConn ~ 6450 3100
NoConn ~ 6450 3400
NoConn ~ 6450 3500
NoConn ~ 6450 3600
NoConn ~ 6450 4200
NoConn ~ 6450 4300
NoConn ~ 6450 4400
NoConn ~ 6450 4500
NoConn ~ 6450 4600
Text Label 8350 3200 0    50   ~ 0
GPIO14_TXD0
Text Label 8350 3300 0    50   ~ 0
GPIO15_RXD0
Text Label 8350 3400 0    50   ~ 0
GPIO18_GEN1
Text Label 8350 3600 0    50   ~ 0
GPIO23_GEN4
Text Label 8350 3700 0    50   ~ 0
GPIO24_GEN5
Text Label 8350 3900 0    50   ~ 0
GPIO25_GEN6
Text Label 8350 4000 0    50   ~ 0
GPIO8_SPI_CE0_N
Text Label 8350 4100 0    50   ~ 0
GPIO7_SPI_CE1_N
Wire Wire Line
	8000 4100 9050 4100
Text Label 8350 4200 0    50   ~ 0
ID_SC
Text Label 8350 4400 0    50   ~ 0
GPIO12
Text Label 8350 4600 0    50   ~ 0
GPIO16
Text Label 8350 4700 0    50   ~ 0
GPIO20
Text Label 8350 4800 0    50   ~ 0
GPIO21
Wire Wire Line
	8000 3200 9050 3200
Wire Wire Line
	8000 3300 9050 3300
Wire Wire Line
	8000 3400 9050 3400
Wire Wire Line
	8000 3600 9050 3600
Wire Wire Line
	8000 3700 9050 3700
Wire Wire Line
	8000 3900 9050 3900
Wire Wire Line
	8000 4200 9050 4200
Wire Wire Line
	8000 4400 9050 4400
Wire Wire Line
	8000 4600 9050 4600
Wire Wire Line
	8000 4700 9050 4700
NoConn ~ 9050 3200
NoConn ~ 9050 3300
NoConn ~ 9050 3400
NoConn ~ 9050 3600
NoConn ~ 9050 3700
NoConn ~ 9050 3900
NoConn ~ 9050 4100
NoConn ~ 9050 4200
NoConn ~ 9050 4400
NoConn ~ 9050 4600
NoConn ~ 9050 4700
NoConn ~ 9050 4800
Wire Wire Line
	8000 4800 9050 4800
$Comp
L Mechanical:MountingHole H1
U 1 1 5C7C4C81
P 9250 1250
F 0 "H1" H 9350 1296 50  0000 L CNN
F 1 "MountingHole" H 9350 1205 50  0000 L CNN
F 2 "lib:MountingHole_2.7mm_M2.5_uHAT_RPi" H 9250 1250 50  0001 C CNN
F 3 "~" H 9250 1250 50  0001 C CNN
	1    9250 1250
	1    0    0    -1  
$EndComp
$Comp
L Mechanical:MountingHole H2
U 1 1 5C7C7FBC
P 9250 1450
F 0 "H2" H 9350 1496 50  0000 L CNN
F 1 "MountingHole" H 9350 1405 50  0000 L CNN
F 2 "lib:MountingHole_2.7mm_M2.5_uHAT_RPi" H 9250 1450 50  0001 C CNN
F 3 "~" H 9250 1450 50  0001 C CNN
	1    9250 1450
	1    0    0    -1  
$EndComp
$Comp
L Mechanical:MountingHole H3
U 1 1 5C7C8014
P 9250 1650
F 0 "H3" H 9350 1696 50  0000 L CNN
F 1 "MountingHole" H 9350 1605 50  0000 L CNN
F 2 "lib:MountingHole_2.7mm_M2.5_uHAT_RPi" H 9250 1650 50  0001 C CNN
F 3 "~" H 9250 1650 50  0001 C CNN
	1    9250 1650
	1    0    0    -1  
$EndComp
$Comp
L Mechanical:MountingHole H4
U 1 1 5C7C8030
P 9250 1850
F 0 "H4" H 9350 1896 50  0000 L CNN
F 1 "MountingHole" H 9350 1805 50  0000 L CNN
F 2 "lib:MountingHole_2.7mm_M2.5_uHAT_RPi" H 9250 1850 50  0001 C CNN
F 3 "~" H 9250 1850 50  0001 C CNN
	1    9250 1850
	1    0    0    -1  
$EndComp
NoConn ~ 6450 3200
$Comp
L Analog_ADC:MCP3008 U2
U 1 1 615DBAE4
P 5050 3700
F 0 "U2" H 5050 4381 50  0000 C CNN
F 1 "MCP3008" H 5050 4290 50  0000 C CNN
F 2 "" H 5150 3800 50  0001 C CNN
F 3 "http://ww1.microchip.com/downloads/en/DeviceDoc/21295d.pdf" H 5150 3800 50  0001 C CNN
	1    5050 3700
	1    0    0    -1  
$EndComp
$Comp
L Switch:SW_MEC_5G SW1
U 1 1 615DEBB4
P 5350 4700
F 0 "SW1" H 5350 4985 50  0000 C CNN
F 1 "Update Time Btn" H 5350 4894 50  0000 C CNN
F 2 "" H 5350 4900 50  0001 C CNN
F 3 "http://www.apem.com/int/index.php?controller=attachment&id_attachment=488" H 5350 4900 50  0001 C CNN
	1    5350 4700
	1    0    0    -1  
$EndComp
Wire Wire Line
	4450 3400 4350 3400
Wire Wire Line
	4350 3400 4350 3700
Wire Wire Line
	4350 4100 4450 4100
Wire Wire Line
	4450 3700 4350 3700
Connection ~ 4350 3700
Wire Wire Line
	4350 3700 4350 3800
Wire Wire Line
	4450 3800 4350 3800
Connection ~ 4350 3800
Wire Wire Line
	4450 3900 4350 3900
Wire Wire Line
	4350 3800 4350 3900
Connection ~ 4350 3900
Wire Wire Line
	4450 4000 4350 4000
Wire Wire Line
	4350 3900 4350 4000
Connection ~ 4350 4000
Wire Wire Line
	4350 4000 4350 4100
Connection ~ 4350 4100
Wire Wire Line
	5250 4300 5250 4350
Wire Wire Line
	5250 4350 4950 4350
Wire Wire Line
	4950 4350 4950 4300
Wire Wire Line
	4950 4350 4350 4350
Wire Wire Line
	4350 4350 4350 4100
Connection ~ 4950 4350
$Comp
L Sensor_Temperature:MCP9700AT-ELT U1
U 1 1 615E5BD9
P 2800 3200
F 0 "U1" H 2470 3246 50  0000 R CNN
F 1 "MCP9700AT-ELT" H 2470 3155 50  0000 R CNN
F 2 "Package_TO_SOT_SMD:SOT-353_SC-70-5" H 2800 2800 50  0001 C CNN
F 3 "http://ww1.microchip.com/downloads/en/DeviceDoc/20001942G.pdf" H 2800 3200 50  0001 C CNN
	1    2800 3200
	1    0    0    -1  
$EndComp
Wire Wire Line
	3750 3550 3750 3600
Wire Wire Line
	3750 3600 4450 3600
Connection ~ 3750 3600
Wire Wire Line
	3750 3600 3750 3650
Wire Wire Line
	6250 3700 6250 3900
Wire Wire Line
	6150 3600 6150 4000
Connection ~ 3750 2900
Wire Wire Line
	3750 2900 4950 2900
Wire Wire Line
	4950 2900 4950 3200
Connection ~ 4950 2900
Wire Wire Line
	4950 2900 5250 2900
Wire Wire Line
	5250 2900 5250 3200
$Comp
L power:PWR_FLAG #FLG01
U 1 1 6168DA86
P 6850 2800
F 0 "#FLG01" H 6850 2875 50  0001 C CNN
F 1 "PWR_FLAG" H 6850 2974 50  0000 C CNN
F 2 "" H 6850 2800 50  0001 C CNN
F 3 "~" H 6850 2800 50  0001 C CNN
	1    6850 2800
	1    0    0    -1  
$EndComp
Wire Wire Line
	6850 2900 6850 2800
Wire Wire Line
	6850 2900 7250 2900
Wire Wire Line
	4450 3500 4250 3500
Wire Wire Line
	4950 4700 4950 4350
Wire Wire Line
	2800 2900 3750 2900
Wire Wire Line
	4250 3500 4250 3200
Wire Wire Line
	4250 3200 3200 3200
Wire Wire Line
	2800 3500 2800 4700
Wire Wire Line
	2800 4700 4950 4700
Connection ~ 4950 4700
Wire Wire Line
	7300 4100 7300 3300
Wire Wire Line
	7300 3300 7500 3300
Connection ~ 7300 4100
Wire Wire Line
	7300 4800 4950 4800
Wire Wire Line
	4950 4800 4950 4700
Wire Wire Line
	3750 4350 4350 4350
Connection ~ 4350 4350
Wire Wire Line
	4950 4700 5150 4700
Wire Wire Line
	5550 4700 7500 4700
Wire Wire Line
	5650 3900 6000 3900
Wire Wire Line
	6000 3900 6000 5650
Wire Wire Line
	6000 5650 9200 5650
Wire Wire Line
	9200 5650 9200 4000
Wire Wire Line
	8000 4000 9200 4000
Wire Wire Line
	5650 3800 7500 3800
Wire Wire Line
	6150 4000 7500 4000
Wire Wire Line
	6250 3900 7500 3900
Wire Wire Line
	6250 3700 5650 3700
Wire Wire Line
	6150 3600 5650 3600
Wire Wire Line
	7250 3700 6350 3700
Wire Wire Line
	6350 3700 6350 2900
Connection ~ 7250 3700
Wire Wire Line
	6350 2900 5250 2900
Connection ~ 5250 2900
$Comp
L Device:R_PHOTO R?
U 1 1 6160C758
P 3750 3800
F 0 "R?" H 3820 3846 50  0000 L CNN
F 1 "R_PHOTO" H 3820 3755 50  0000 L CNN
F 2 "" V 3800 3550 50  0001 L CNN
F 3 "~" H 3750 3750 50  0001 C CNN
	1    3750 3800
	1    0    0    -1  
$EndComp
$Comp
L Device:R_Small_US R?
U 1 1 6160FA9E
P 3750 3450
F 0 "R?" H 3818 3496 50  0000 L CNN
F 1 "R_Small_US" H 3818 3405 50  0000 L CNN
F 2 "" H 3750 3450 50  0001 C CNN
F 3 "~" H 3750 3450 50  0001 C CNN
	1    3750 3450
	1    0    0    -1  
$EndComp
Wire Wire Line
	3750 2900 3750 3350
Wire Wire Line
	3750 3950 3750 4350
$EndSCHEMATC
