EESchema Schematic File Version 4
EELAYER 30 0
EELAYER END
$Descr A4 11693 8268
encoding utf-8
Sheet 1 2
Title "Raspberry Pi Zero (W) uHAT Template Board"
Date "2019-02-28"
Rev "1.0"
Comp ""
Comment1 "This Schematic is licensed under MIT Open Source License."
Comment2 ""
Comment3 ""
Comment4 ""
$EndDescr
$Comp
L Connector_Generic:Conn_02x20_Odd_Even J1
U 1 1 5C77771F
P 5800 4650
F 0 "J1" H 5850 5767 50  0000 C CNN
F 1 "GPIO_CONNECTOR" H 5850 5676 50  0000 C CNN
F 2 "lib:PinSocket_2x20_P2.54mm_Vertical_Centered_Anchor" H 5800 4650 50  0001 C CNN
F 3 "~" H 5800 4650 50  0001 C CNN
	1    5800 4650
	1    0    0    -1  
$EndComp
$Comp
L power:GND #PWR0101
U 1 1 5C777805
P 5400 5800
F 0 "#PWR0101" H 5400 5550 50  0001 C CNN
F 1 "GND" H 5405 5627 50  0001 C CNN
F 2 "" H 5400 5800 50  0001 C CNN
F 3 "" H 5400 5800 50  0001 C CNN
	1    5400 5800
	1    0    0    -1  
$EndComp
$Comp
L power:GND #PWR0102
U 1 1 5C777838
P 6300 5800
F 0 "#PWR0102" H 6300 5550 50  0001 C CNN
F 1 "GND" H 6305 5627 50  0001 C CNN
F 2 "" H 6300 5800 50  0001 C CNN
F 3 "" H 6300 5800 50  0001 C CNN
	1    6300 5800
	1    0    0    -1  
$EndComp
Wire Wire Line
	5600 4150 5400 4150
Wire Wire Line
	5400 4150 5400 4950
Wire Wire Line
	5600 4950 5400 4950
Connection ~ 5400 4950
Wire Wire Line
	5400 4950 5400 5650
Wire Wire Line
	5600 5650 5400 5650
Connection ~ 5400 5650
Wire Wire Line
	5400 5650 5400 5800
Wire Wire Line
	6100 3950 6300 3950
Wire Wire Line
	6300 3950 6300 4350
Wire Wire Line
	6100 4350 6300 4350
Connection ~ 6300 4350
Wire Wire Line
	6300 4350 6300 4650
Wire Wire Line
	6100 4650 6300 4650
Connection ~ 6300 4650
Wire Wire Line
	6100 5150 6300 5150
Wire Wire Line
	6300 4650 6300 5150
Connection ~ 6300 5150
Wire Wire Line
	6300 5150 6300 5350
Wire Wire Line
	6100 5350 6300 5350
Connection ~ 6300 5350
Wire Wire Line
	6300 5350 6300 5750
$Comp
L power:+3.3V #PWR0103
U 1 1 5C777AB0
P 5350 3650
F 0 "#PWR0103" H 5350 3500 50  0001 C CNN
F 1 "+3.3V" H 5365 3823 50  0000 C CNN
F 2 "" H 5350 3650 50  0001 C CNN
F 3 "" H 5350 3650 50  0001 C CNN
	1    5350 3650
	1    0    0    -1  
$EndComp
Wire Wire Line
	5350 3750 5350 3650
Wire Wire Line
	5600 4550 5350 4550
Wire Wire Line
	5350 4550 5350 3750
Connection ~ 5350 3750
$Comp
L power:+5V #PWR0104
U 1 1 5C777E01
P 6400 3650
F 0 "#PWR0104" H 6400 3500 50  0001 C CNN
F 1 "+5V" H 6415 3823 50  0000 C CNN
F 2 "" H 6400 3650 50  0001 C CNN
F 3 "" H 6400 3650 50  0001 C CNN
	1    6400 3650
	1    0    0    -1  
$EndComp
Wire Wire Line
	6100 3750 6400 3750
Wire Wire Line
	6400 3750 6400 3650
Wire Wire Line
	6100 3850 6400 3850
Wire Wire Line
	6400 3850 6400 3750
Connection ~ 6400 3750
$Comp
L power:PWR_FLAG #FLG0101
U 1 1 5C77824A
P 4950 3650
F 0 "#FLG0101" H 4950 3725 50  0001 C CNN
F 1 "PWR_FLAG" H 4950 3824 50  0000 C CNN
F 2 "" H 4950 3650 50  0001 C CNN
F 3 "~" H 4950 3650 50  0001 C CNN
	1    4950 3650
	1    0    0    -1  
$EndComp
$Comp
L power:GND #PWR0105
U 1 1 5C778504
P 5000 5900
F 0 "#PWR0105" H 5000 5650 50  0001 C CNN
F 1 "GND" H 5005 5727 50  0001 C CNN
F 2 "" H 5000 5900 50  0001 C CNN
F 3 "" H 5000 5900 50  0001 C CNN
	1    5000 5900
	1    0    0    -1  
$EndComp
$Comp
L power:PWR_FLAG #FLG0102
U 1 1 5C778511
P 5000 5850
F 0 "#FLG0102" H 5000 5925 50  0001 C CNN
F 1 "PWR_FLAG" H 5000 6024 50  0000 C CNN
F 2 "" H 5000 5850 50  0001 C CNN
F 3 "~" H 5000 5850 50  0001 C CNN
	1    5000 5850
	1    0    0    -1  
$EndComp
Wire Wire Line
	5000 5850 5000 5900
Wire Notes Line
	11300 4000 11300 3650
Wire Wire Line
	5350 3750 5600 3750
Wire Wire Line
	4950 3750 4950 3650
$Comp
L power:PWR_FLAG #FLG0103
U 1 1 5C77CEFA
P 6750 3650
F 0 "#FLG0103" H 6750 3725 50  0001 C CNN
F 1 "PWR_FLAG" H 6750 3824 50  0000 C CNN
F 2 "" H 6750 3650 50  0001 C CNN
F 3 "~" H 6750 3650 50  0001 C CNN
	1    6750 3650
	1    0    0    -1  
$EndComp
Wire Wire Line
	6400 3750 6750 3750
Wire Wire Line
	6750 3650 6750 3750
Text Label 4650 3850 0    50   ~ 0
GPIO2_SDA1
Text Label 4650 3950 0    50   ~ 0
GPIO3_SCL1
Text Label 4650 4050 0    50   ~ 0
GPIO4_GPIO_GCLK
Text Label 4650 4250 0    50   ~ 0
GPIO17_GEN0
Text Label 4650 4350 0    50   ~ 0
GPIO27_GEN2
Text Label 4650 4450 0    50   ~ 0
GPIO22_GEN3
Text Label 4650 4650 0    50   ~ 0
GPIO10_SPI_MOSI
Wire Wire Line
	4550 4650 5600 4650
Wire Wire Line
	4550 4750 5600 4750
Wire Wire Line
	4550 4850 5600 4850
Wire Wire Line
	4550 5050 5600 5050
Wire Wire Line
	4550 5150 5600 5150
Wire Wire Line
	4550 5250 5600 5250
Wire Wire Line
	4550 5350 5600 5350
Wire Wire Line
	4550 5450 5600 5450
Wire Wire Line
	4550 5550 5600 5550
Wire Wire Line
	4550 4450 5600 4450
Wire Wire Line
	4550 4350 5600 4350
Text Label 4650 4750 0    50   ~ 0
GPIO9_SPI_MISO
Text Label 4650 4850 0    50   ~ 0
GPIO11_SPI_SCLK
Text Label 4650 5050 0    50   ~ 0
ID_SD
Text Label 4650 5150 0    50   ~ 0
GPIO5
Text Label 4650 5250 0    50   ~ 0
GPIO6
Text Label 4650 5350 0    50   ~ 0
GPIO13
Text Label 4650 5450 0    50   ~ 0
GPIO19
Text Label 4650 5550 0    50   ~ 0
GPIO26
NoConn ~ 4550 4350
NoConn ~ 4550 4450
NoConn ~ 4550 4650
NoConn ~ 4550 4750
NoConn ~ 4550 4850
NoConn ~ 4550 5050
NoConn ~ 4550 5150
NoConn ~ 4550 5250
NoConn ~ 4550 5350
NoConn ~ 4550 5450
NoConn ~ 4550 5550
Text Label 6450 4050 0    50   ~ 0
GPIO14_TXD0
Text Label 6450 4150 0    50   ~ 0
GPIO15_RXD0
Text Label 6450 4250 0    50   ~ 0
GPIO18_GEN1
Text Label 6450 4450 0    50   ~ 0
GPIO23_GEN4
Text Label 6450 4550 0    50   ~ 0
GPIO24_GEN5
Text Label 6450 4750 0    50   ~ 0
GPIO25_GEN6
Text Label 6450 4850 0    50   ~ 0
GPIO8_SPI_CE0_N
Text Label 6450 4950 0    50   ~ 0
GPIO7_SPI_CE1_N
Wire Wire Line
	6100 4850 7150 4850
Wire Wire Line
	6100 4950 7150 4950
Text Label 6450 5050 0    50   ~ 0
ID_SC
Text Label 6450 5250 0    50   ~ 0
GPIO12
Text Label 6450 5450 0    50   ~ 0
GPIO16
Text Label 6450 5550 0    50   ~ 0
GPIO20
Text Label 6450 5650 0    50   ~ 0
GPIO21
Wire Wire Line
	6100 4050 7150 4050
Wire Wire Line
	6100 4150 7150 4150
Wire Wire Line
	6100 4250 7150 4250
Wire Wire Line
	6100 4750 7150 4750
Wire Wire Line
	6100 5050 7150 5050
Wire Wire Line
	6100 5250 7150 5250
Wire Wire Line
	6100 5450 7150 5450
Wire Wire Line
	6100 5550 7150 5550
NoConn ~ 7150 4050
NoConn ~ 7150 4150
NoConn ~ 7150 4250
NoConn ~ 7150 4750
NoConn ~ 7150 4850
NoConn ~ 7150 4950
NoConn ~ 7150 5050
NoConn ~ 7150 5250
NoConn ~ 7150 5450
NoConn ~ 7150 5550
NoConn ~ 7150 5650
Wire Wire Line
	6100 5650 7150 5650
$Comp
L Device:LED D?
U 1 1 611FFA3E
P 2900 4750
F 0 "D?" H 2893 4967 50  0000 C CNN
F 1 "LED" H 2893 4876 50  0000 C CNN
F 2 "" H 2900 4750 50  0001 C CNN
F 3 "~" H 2900 4750 50  0001 C CNN
	1    2900 4750
	0    -1   -1   0   
$EndComp
$Comp
L Switch:SW_Push SW?
U 1 1 61201EA3
P 7950 4850
F 0 "SW?" V 7996 4802 50  0000 R CNN
F 1 "SW_Push" V 7905 4802 50  0000 R CNN
F 2 "" H 7950 5050 50  0001 C CNN
F 3 "~" H 7950 5050 50  0001 C CNN
	1    7950 4850
	0    -1   -1   0   
$EndComp
$Comp
L Switch:SW_Push SW?
U 1 1 61202DB2
P 8800 4850
F 0 "SW?" H 8800 5135 50  0000 C CNN
F 1 "SW_Push" H 8800 5044 50  0000 C CNN
F 2 "" H 8800 5050 50  0001 C CNN
F 3 "~" H 8800 5050 50  0001 C CNN
	1    8800 4850
	0    -1   -1   0   
$EndComp
$Comp
L Device:R_US R
U 1 1 61206776
P 2900 5150
F 0 "R" H 2968 5196 50  0000 L CNN
F 1 "R_US" H 2968 5105 50  0000 L CNN
F 2 "" V 2940 5140 50  0001 C CNN
F 3 "~" H 2900 5150 50  0001 C CNN
	1    2900 5150
	1    0    0    -1  
$EndComp
Wire Wire Line
	4950 3750 5350 3750
$Sheet
S 2850 3750 900  550 
U 61214BE8
F0 "Timer PCB" 50
F1 "Timer PCB.sch" 50
F2 "+" I R 3750 3800 50 
F3 "-" I R 3750 4250 50 
F4 "NC" I R 3750 4150 50 
F5 "D" I R 3750 3900 50 
F6 "C" I R 3750 4000 50 
$EndSheet
Wire Wire Line
	4950 3750 3850 3750
Wire Wire Line
	3850 3750 3850 3800
Wire Wire Line
	3850 3800 3750 3800
Connection ~ 4950 3750
Wire Wire Line
	3950 3850 3950 3900
Wire Wire Line
	3950 3900 3750 3900
Wire Wire Line
	3950 3850 5600 3850
Wire Wire Line
	4000 3950 4000 4000
Wire Wire Line
	4000 4000 3750 4000
Wire Wire Line
	4000 3950 5600 3950
Wire Wire Line
	4050 4050 4050 4150
Wire Wire Line
	4050 4150 3750 4150
Wire Wire Line
	4050 4050 5600 4050
Wire Wire Line
	5400 4150 4200 4150
Wire Wire Line
	4200 4150 4200 4250
Wire Wire Line
	4200 4250 3750 4250
Connection ~ 5400 4150
Wire Wire Line
	2900 5000 2900 4900
Wire Wire Line
	4350 4600 4350 4250
Wire Wire Line
	4350 4250 5600 4250
Wire Wire Line
	2900 4600 4350 4600
Wire Wire Line
	5400 5650 2900 5650
Wire Wire Line
	2900 5650 2900 5300
Wire Wire Line
	6300 5750 7950 5750
Connection ~ 6300 5750
Wire Wire Line
	6300 5750 6300 5800
Wire Wire Line
	6100 4450 8800 4450
Wire Wire Line
	8800 4450 8800 4650
Wire Wire Line
	7950 4550 7950 4650
Wire Wire Line
	6100 4550 7950 4550
Wire Wire Line
	7950 5050 7950 5750
Connection ~ 7950 5750
Wire Wire Line
	7950 5750 8800 5750
Wire Wire Line
	8800 5050 8800 5750
$EndSCHEMATC
